prompt


quero criar um sistema web para controlar minha finanças, registrando gastos e recebimentos
esse sistema de ser responsivo, para que se adapte aos dispositivos, ou seja, quero que o sistema seja utilizado tanto em celular, quanto em dispositivos de tela, como tablet, desktop
utilize react com typescript, material ui e tailwind como tecnologia
o sistema será composto de uma landing page e a página do usuário
para a construção da landing page quero um layout moderno padrão para landing pages desse seguimento, com menus de navegação com "quem somos", "serviços", "cadastre-se", "entrar", por exemplo
quando o usuário clicar em cadastre-se, ele deve preencher um formulário com os campos nome, email, senha
adicione as validações para 
nome - tamanho 200 caracteres
email - tamanho 200 caracters, além da validação de email
senha - de 6 a 10 caracteres

adicione um campo confirmar senha, e valide se o usuário informou a senha do campo senha
ao clicar enviar, deve-se enviar um post para http://localhost:5000/users com o payload como os seguintes atributos {name, email, password}
esse domínio http://localhost:5000 deve estar em um arquivo .env, pois vai se muito utilizado
o retorno dessa requisição será o seguinte json com os campos { name, email, id}
para entrar no sistema, o usuário deve clicar em Entrar na navegação principal que envia um post para http://localhost:5000/users/login com o payload com os campos {email, password}, a resposta será um json como nesse exemplo:
{
    "access_token": "token jwt"
}
quando abrir o token, terá o seguinte dados do usuário: id, name e email
agora o usuário pode acessar o sistema
todas as chamadas do usuário como incluir um gasto, pesquisar e afins, deverá utilizar esse token, sugiro que o sistema guarde o token no localstore e quando receber status 401, deve chamar a rota login novamente para atualizar o token
uma vez logado, quero uma tela de sistema informando o usuário logado.

para desktop imagino um sistema onde temos uma sidebar lateral e uma tela principal, ou seja, a tela dividida em duas partes, quando for clicado no menu lateral, deve ser apresentada as tela principal referente a opção selecionada
vou descrever as ações e os endpoints com seus payloads e retorno para cada menu
gastos
registrar um gasto
POST /costs
payload: {
    "title": "Compras do mês",
    "description": "Compras no supermercado",
    "value": 150.50,
    "transaction_date": "2024-03-20"
}
retorno : {
    "description": "Compras no supermercado",
    "id": 23,
    "title": "Compras do mês",
    "transaction_date": "Wed, 20 Mar 2024 00:00:00 GMT",
    "value": "150.50"
}

buscar um gasto por id
GET /costs/:id
retorno: {
    "description": "Compras no supermercado",
    "id": 23,
    "title": "Compras do mês",
    "transaction_date": "Wed, 20 Mar 2024 00:00:00 GMT",
    "value": "150.50"
}

buscar todos os gastos
GET /costs
query params: start_date, end_date, page, page_size
retorno: {
    "items": [
        {
            "description": "Salário do dia 20",
            "id": 22,
            "title": "Salário",
            "transaction_date": "Fri, 30 May 2025 00:00:00 GMT",
            "value": "20000.00"
        },
        {
            "description": "Pães e doces",
            "id": 1,
            "title": "Compra da semana",
            "transaction_date": "Wed, 30 Apr 2025 00:00:00 GMT",
            "value": "200.00"
        }
    ],
    "links": {
        "first": "http://localhost:5000/api/costs?page=1&page_size=2",
        "last": "http://localhost:5000/api/costs?page=11&page_size=2",
        "next": "http://localhost:5000/api/costs?page=2&page_size=2"
    },
    "pagination": {
        "page": 1,
        "page_size": 2,
        "total_items": 22,
        "total_pages": 11
    }
}

atualizar parcialmente um gasto 
PATCH /costs/:id
payload {} passar alguns desses campos: description, title, transaction_date e value
retorno: {
    "description": "Salário do dia 20",
    "id": 22,
    "title": "Salário",
    "transaction_date": "Wed, 30 Apr 2025 00:00:00 GMT",
    "value": "20000.00"
}

atualizar totalmente um gasto
PUT /costs/:id
payload: {
    "title": "Compra da semana",
    "description": "Pães e doces",
    "value": 200,
    "transaction_date": "2025-05-30"
}
retorno: {
    "description": "Pães e doces",
    "id": 22,
    "title": "Compra da semana",
    "transaction_date": "Fri, 30 May 2025 00:00:00 GMT",
    "value": "200.00"
}

remover um gasto
DELETE /costs/:id
retorno: 204

todos esse endpoints precisam ser enviados o token, com Bearer token

na tela principal quero uma aba para criar um gasto e outra para buscar todos os meus gastos
pelo endpoint é possível enviar uma data inicial e uma data final
a api devolve instruções para paginação, então aprensente paginação caso necedssário
os gastos deve ser apresentados em uma tabela, onde ao clicar sobre um gasto, deve apresentar o mesmo com detalhes e disponibilizar botões para edição e remoção, usando os devidos enpoints apresentados

para Recebimentos, segue a mesma lógica dos gastos, os payloads são os mesmos, mudando apenas os endpoints
GET /receivements (query: start_date, end_date, page, page_size)
GET /receivements/:id
POST /receivements (payload igual ao de gastos)
PUT /receivements/:id (payload igual ao de gastos)
PATCH /receivements (payload igual ao de gastos)
DELETE /receivements/:id

esses são os endpoints já implemetados na api, mas pode adicionar mais funcionalidades que em breve irei desenvolver os endpoints necessários

lembrando que todo o layout deve ser responsivo, ou seja, se adaptar para dispositivos menores, por isso peço que crie da melhor forma possível














I want to create a responsive web system to manage my personal finances, allowing me to register both expenses and income (receivements).

The system must work well on mobile, tablet, and desktop devices, adapting its layout accordingly.

🛠️ Technology Stack
React with TypeScript

Material UI

TailwindCSS

Base URL http://localhost:5000 should be stored in an .env file.

🔖 App Structure
The system will consist of two main parts:

Landing Page

Authenticated User Dashboard

🌐 Landing Page
A modern layout following common standards for fintech landing pages.

Navigation menu:

Who We Are

Services

Sign Up

Login

📝 Sign Up Form
Fields: name, email, password, confirmPassword

Validations:

name: max 200 characters

email: valid format, max 200 characters

password: 6–10 characters

confirmPassword: must match password

On submission, send a POST request to /users:

json
Copiar
Editar
{
  "name": "John Doe",
  "email": "john@example.com",
  "password": "123456"
}
Expected response:

json
Copiar
Editar
{
  "name": "John Doe",
  "email": "john@example.com",
  "id": 1
}
🔐 Login
POST /users/login with payload:

json
Copiar
Editar
{
  "email": "john@example.com",
  "password": "123456"
}
Response:

json
Copiar
Editar
{
  "access_token": "jwt_token"
}
Extract user data (id, name, email) from the JWT token.

Store token in localStorage.

All authenticated API calls must send this token using Authorization: Bearer <token>.

If a request returns 401, automatically re-authenticate.

💻 Authenticated User Dashboard
Upon login, show a dashboard with the logged-in user's name.

🖥️ Layout (Desktop)
Sidebar navigation on the left.

Main content area on the right.

Responsive for smaller screens (e.g., collapsible drawer on mobile).

📚 Sidebar Menus:
Expenses (Gastos)

Income (Receivements)

Each menu has two tabs:

Create New

View All

💸 Expenses Module
➕ Create Expense
Endpoint: POST /costs

Payload:

json
Copiar
Editar
{
  "title": "Compras do mês",
  "description": "Compras no supermercado",
  "value": 150.50,
  "transaction_date": "2024-03-20"
}
Response:

json
Copiar
Editar
{
  "description": "Compras no supermercado",
  "id": 23,
  "title": "Compras do mês",
  "transaction_date": "Wed, 20 Mar 2024 00:00:00 GMT",
  "value": "150.50"
}
🔍 Get Expense by ID
GET /costs/:id

Response:

json
Copiar
Editar
{
  "description": "Compras no supermercado",
  "id": 23,
  "title": "Compras do mês",
  "transaction_date": "Wed, 20 Mar 2024 00:00:00 GMT",
  "value": "150.50"
}
📋 List All Expenses
GET /costs?start_date=&end_date=&page=&page_size=

Response:

json
Copiar
Editar
{
  "items": [
    {
      "description": "Salário do dia 20",
      "id": 22,
      "title": "Salário",
      "transaction_date": "Fri, 30 May 2025 00:00:00 GMT",
      "value": "20000.00"
    },
    {
      "description": "Pães e doces",
      "id": 1,
      "title": "Compra da semana",
      "transaction_date": "Wed, 30 Apr 2025 00:00:00 GMT",
      "value": "200.00"
    }
  ],
  "links": {
    "first": "http://localhost:5000/api/costs?page=1&page_size=2",
    "last": "http://localhost:5000/api/costs?page=11&page_size=2",
    "next": "http://localhost:5000/api/costs?page=2&page_size=2"
  },
  "pagination": {
    "page": 1,
    "page_size": 2,
    "total_items": 22,
    "total_pages": 11
  }
}
Must display results in a table with pagination.

Clicking an item should show its details and edit/delete options.

✏️ Edit Expense
PATCH /costs/:id or PUT /costs/:id

Payload (partial or full):

json
Copiar
Editar
{
  "title": "Compra da semana",
  "description": "Pães e doces",
  "value": 200,
  "transaction_date": "2025-05-30"
}
Response:

json
Copiar
Editar
{
  "description": "Pães e doces",
  "id": 22,
  "title": "Compra da semana",
  "transaction_date": "Fri, 30 May 2025 00:00:00 GMT",
  "value": "200.00"
}
❌ Delete Expense
DELETE /costs/:id

Response: 204 No Content

💰 Receivements Module
Follows the same structure and payloads as the Expenses module, but uses /receivements instead of /costs.

Endpoints:

GET /receivements

GET /receivements/:id

POST /receivements

PATCH /receivements/:id

PUT /receivements/:id

DELETE /receivements/:id

🔐 Authentication
All requests must use the JWT in the Authorization header.

Automatically re-authenticate on 401 Unauthorized.

📱 Responsiveness
The entire application must be fully responsive, ensuring a smooth experience across phones, tablets, and desktops.

🧠 Notes
You can add UI enhancements and extra features beyond the current backend – I will implement new API endpoints in the future as needed.


